…
    ## See spec(...) for full column specifications.

``` r
hw2_transit
```

    ## # A tibble: 4,270 x 10
    ##    line  station_name station_latitude station_longitu~ route_number
    ##    <chr> <chr>                   <dbl>            <dbl> <chr>       
    ##  1 4 Av~ 25th St                  40.7            -74.0 route1      
    ##  2 4 Av~ 25th St                  40.7            -74.0 route1      
    ##  3 4 Av~ 36th St                  40.7            -74.0 route1      
    ##  4 4 Av~ 36th St                  40.7            -74.0 route1      
    ##  5 4 Av~ 36th St                  40.7            -74.0 route1      
    ##  6 4 Av~ 45th St                  40.6            -74.0 route1      
    ##  7 4 Av~ 45th St                  40.6            -74.0 route1      
    ##  8 4 Av~ 45th St                  40.6            -74.0 route1      
    ##  9 4 Av~ 45th St                  40.6            -74.0 route1      
    ## 10 4 Av~ 53rd St                  40.6            -74.0 route1      
    ## # ... with 4,260 more rows, and 5 more variables: route_name <chr>,
    ## #   entry <lgl>, vending <chr>, entrance_type <chr>, ada <lgl>
…
-   Read and clean the data

``` r
hw2_wheel = 
  read_excel("./data/HealthyHarborWaterWheelTotals2017-9-26.xlsx", 
             range = cell_cols(1:14),
             col_names = TRUE) %>% 
  janitor::clean_names() %>% 
  filter(date != 0) %>% 
  mutate(sports_balls = as.integer(round(sports_balls)))
hw2_wheel
```

    ## # A tibble: 215 x 14
    ##    dumpster month  year date                weight_tons volume_cubic_ya~
    ##       <dbl> <chr> <dbl> <dttm>                    <dbl>            <dbl>
    ##  1        1 May    2014 2014-05-16 00:00:00        4.31               18
    ##  2        2 May    2014 2014-05-16 00:00:00        2.74               13
    ##  3        3 May    2014 2014-05-16 00:00:00        3.45               15
    ##  4        4 May    2014 2014-05-17 00:00:00        3.1                15
    ##  5        5 May    2014 2014-05-17 00:00:00        4.06               18
    ##  6        6 May    2014 2014-05-20 00:00:00        2.71               13
    ##  7        7 May    2014 2014-05-21 00:00:00        1.91                8
    ##  8        8 May    2014 2014-05-28 00:00:00        3.7                16
    ##  9        9 June   2014 2014-06-05 00:00:00        2.52               14
    ## 10       10 June   2014 2014-06-11 00:00:00        3.76               18
    ## # ... with 205 more rows, and 8 more variables: plastic_bottles <dbl>,
    ## #   polystyrene <dbl>, cigarette_butts <dbl>, glass_bottles <dbl>,
    ## #   grocery_bags <dbl>, chip_bags <dbl>, sports_balls <int>,
    ## #   homes_powered <dbl>
…
``` r
hw2_brfss = brfss_smart2010 %>% 
  janitor::clean_names() %>% 
  filter(topic == "Overall Health") %>% 
  separate(locationdesc, into = c("remove", "location_county"), sep = " - ") %>% 
  rename(location_state = locationabbr) %>%
  select(year, location_state, location_county, response, data_value) %>% 
  spread(key = response, value = data_value) %>%
  janitor::clean_names() %>%
  select(year:location_county, excellent, very_good, good, fair, poor) %>% 
  mutate(above_good = excellent + very_good) 
hw2_brfss
```

    ## # A tibble: 2,125 x 9
    ##     year location_state location_county excellent very_good  good  fair
    ##    <int> <chr>          <chr>               <dbl>     <dbl> <dbl> <dbl>
    ##  1  2002 AK             Anchorage Muni~      27.9      33.7  23.8   8.6
    ##  2  2002 AL             Jefferson Coun~      18.5      30.9  32.7  12.1
    ##  3  2002 AR             Pulaski County       24.1      29.3  29.9  12.5
    ##  4  2002 AZ             Maricopa County      21.6      36.6  26.9  10.3
    ##  5  2002 AZ             Pima County          26.6      30.1  31.9   7.5
    ##  6  2002 CA             Los Angeles Co~      22.7      29.8  28.7  14.3
    ##  7  2002 CO             Adams County         21.2      31.2  29    14.4
    ##  8  2002 CO             Arapahoe County      25.5      35.2  29.3   8  
    ##  9  2002 CO             Denver County        22.2      27.1  36.6  11.1
    ## 10  2002 CO             Jefferson Coun~      23.4      36.6  26.3  11.4
    ## # ... with 2,115 more rows, and 2 more variables: poor <dbl>,
    ## #   above_good <dbl>
…
